Deforestation Dynamics on New Britain, Papua New Guinea (2001–2023)
…
Data Processing Methods

Annual tree cover loss (in hectares) was extracted for East and West New Britain from the Global Forest Watch subnational dataset. Data were filtered to include only threshold = 0, corresponding to all tree cover regardless of canopy density.

To allow meaningful comparison between provinces of different sizes, forest loss was analyzed in both absolute terms (hectares) and normalized terms (percentage of baseline forest area). Annual percentage forest loss was calculated by dividing annual loss by baseline forest extent in 2000. Cumulative forest loss was computed as the running sum of annual losses over time.

Administrative boundaries from HDX were harmonized with the forest loss dataset by standardizing province names prior to spatial joins. Choropleth maps were generated using fixed color scales based on the full range of values across all years to ensure temporal comparability.

# A tibble: 46 × 3
   province          year loss_ha
   <chr>            <int>   <dbl>
 1 East New Britain  2001    1152
 2 East New Britain  2002    1623
 3 East New Britain  2003    2167
 4 East New Britain  2004    2834
 5 East New Britain  2005    2022
 6 East New Britain  2006    3225
 7 East New Britain  2007    3643
 8 East New Britain  2008    6322
 9 East New Britain  2009    2544
10 East New Britain  2010    8496
# ℹ 36 more rows
…
